ace-editor:1.1
active-directory:2.25
amazon-ecr:1.7
analysis-model-api:10.10.0
ansicolor:1.0.1
ant:1.13
antisamy-markup-formatter:2.7
apache-httpcomponents-client-4-api:4.5.13-1.0
authentication-tokens:1.4
aws-credentials:1.32
aws-java-sdk:1.12.101-300.vc09c7be9cb57
aws-java-sdk-cloudformation:1.12.101-300.vc09c7be9cb57
aws-java-sdk-codebuild:1.12.101-300.vc09c7be9cb57
aws-java-sdk-ec2:1.12.101-300.vc09c7be9cb57
aws-java-sdk-ecr:1.12.101-300.vc09c7be9cb57
aws-java-sdk-ecs:1.12.101-300.vc09c7be9cb57
aws-java-sdk-elasticbeanstalk:1.12.101-300.vc09c7be9cb57
aws-java-sdk-iam:1.12.101-300.vc09c7be9cb57
aws-java-sdk-logs:1.12.101-300.vc09c7be9cb57
aws-java-sdk-minimal:1.12.101-300.vc09c7be9cb57
aws-java-sdk-ssm:1.12.101-300.vc09c7be9cb57
aws-lambda:0.5.10
blueocean:1.25.2
blueocean-autofavorite:1.2.4
blueocean-bitbucket-pipeline:1.25.2
blueocean-commons:1.25.2
blueocean-config:1.25.2
blueocean-core-js:1.25.2
blueocean-dashboard:1.25.2
blueocean-display-url:2.4.1
blueocean-events:1.25.2
blueocean-executor-info:1.25.2
blueocean-github-pipeline:1.25.2
blueocean-git-pipeline:1.25.2
blueocean-i18n:1.25.2
blueocean-jira:1.25.2
blueocean-jwt:1.25.2
blueocean-personalization:1.25.2
blueocean-pipeline-api-impl:1.25.2
blueocean-pipeline-editor:1.25.2
blueocean-pipeline-scm-api:1.25.2
blueocean-rest:1.25.2
blueocean-rest-impl:1.25.2
blueocean-web:1.25.2
bootstrap4-api:4.6.0-3
bootstrap5-api:5.1.3-6
bouncycastle-api:2.25
branch-api:2.7.0
buildgraph-view:1.8
build-name-setter:2.2.0
build-timeout:1.20
build-timestamp:1.0.3
build-token-root:1.9
build-user-vars-plugin:1.8
caffeine-api:2.9.2-29.v717aac953ff3
checks-api:1.7.2
cloudbees-bitbucket-branch-source:734.v2f848c5e6ea2
cloudbees-folder:6.722.v8165b_a_cf25e9
cobertura:1.17
code-coverage-api:2.0.4
collapsing-console-sections:1.8.0
command-launcher:1.6
conditional-buildstep:1.4.1
config-file-provider:3.8.2
configuration-as-code:1.55
configuration-as-code-support:1.18
configurationslicing:1.52
credentials:2.6.1
credentials-binding:1.27
custom-tools-plugin:0.8
cvs:2.19
dashboard-view:2.18
data-tables-api:1.11.4-4
deploy:1.16
display-url-api:2.3.5
docker-build-publish:1.3.3
docker-commons:1.17
docker-java-api:3.1.5.2
docker-plugin:1.2.3
docker-workflow:1.26
dtkit-api:3.0.0
durable-task:493.v195aefbb0ff2
echarts-api:5.3.2-1
email-ext:2.85
envfile:1.2
envinject-api:1.8
extended-choice-parameter:0.82
extended-read-permission:3.2
external-monitor-job:1.7
favorite:2.3.3
flock:1.0.1
font-awesome-api:6.0.0-1
forensics-api:1.12.0
git:4.10.0
git-client:3.10.0
github:1.34.1
github-api:1.301-378.v9807bd746da5
github-branch-source:2.11.3
gitlab-hook:1.4.2
gitlab-plugin:1.5.24
git-parameter:0.9.13
git-server:1.10
golang:1.4
google-oauth-plugin:1.0.6
gradle:1.37.1
h2-api:1.4.199
handlebars:3.0.8
handy-uri-templates-2-api:2.1.8-1.0
hashicorp-vault-pipeline:1.3
hashicorp-vault-plugin:336.v182c0fbaaeb7
htmlpublisher:1.28
http_request:1.12
jackson2-api:2.13.2.20220328-273.v11d70a_b_a_1a_52
jacoco:3.3.0
javadoc:1.6
jaxb:2.3.0.1
jdepend:1.3.0
JDK_Parameter_Plugin:1.0
jdk-tool:1.5
jenkins-design-language:1.25.2
jira:3.6
jjwt-api:0.11.2-9.c8b45b8bb173
jobConfigHistory:2.28.1
jquery:1.12.4-1
jquery3-api:3.6.0-2
jquery-detached:1.2.1
jquery-ui:1.0.2
jsch:0.1.55.2
junit:1.53
kubernetes:3651.v908e7db_10d06
kubernetes-cli:1.10.3
kubernetes-client-api:5.12.2-193.v26a_6078f65a_9
kubernetes-credentials:0.9.0
ldap:2.7
lockable-resources:2.12
mailer:1.34
mapdb-api:1.0.9.0
matrix-auth:2.6.9
matrix-combinations-parameter:1.3.1
matrix-project:758.v7a_ea_491852f3
maven-plugin:3.15.1
mercurial:2.16
metrics:4.0.2.8.1
momentjs:1.1.1
monitoring:1.88.0
multiple-scms:0.8
newrelic-deployment-notifier:1.8
next-build-number:1.7
nexus-artifact-uploader:2.13
nodejs:1.4.3
notification:1.15
oauth-credentials:0.5
okhttp-api:4.9.3-105.vb96869f8ac3a
ownership:0.13.0
pam-auth:1.6.1
parameterized-scheduler:1.0
parameterized-trigger:2.42
pipeline-aws:1.43
pipeline-build-step:2.15
pipeline-graph-analysis:1.11
pipeline-input-step:2.12
pipeline-maven:3.10.0
pipeline-milestone-step:1.3.2
pipeline-model-api:1.9.3
pipeline-model-declarative-agent:1.1.1
pipeline-model-definition:1.9.3
pipeline-model-extensions:1.9.3
pipeline-rest-api:2.19
pipeline-stage-step:2.5
pipeline-stage-tags-metadata:1.9.3
pipeline-stage-view:2.19
pipeline-utility-steps:2.11.0
plain-credentials:1.7
play-autotest-plugin:1.0.2
plot:2.1.9
plugin-usage-plugin:2.1
plugin-util-api:2.16.0
popper2-api:2.11.5-1
popper-api:1.16.1-2
postbuildscript:2.8.1
prism-api:1.26.0-2
promoted-builds:3.11
publish-over:0.22
publish-over-ssh:1.22
pubsub-light:1.16
pyenv-pipeline:2.1.2
rebuild:1.32
repository-connector:2.2.0
resource-disposer:0.16
role-strategy:3.2.0
ruby-runtime:0.12
run-condition:1.5
sbt:1.5
scm-api:2.6.5
script-security:1138.v8e727069a_025
shiningpanda:0.24
snakeyaml-api:1.29.1
sonar:2.14
sse-gateway:1.24
ssh-agent:1.23
ssh-credentials:1.19
sshd:3.1.0
ssh-slaves:1.33.0
ssh-steps:2.0.0
started-by-envvar:1.0
structs:308.v852b473a2b8c
subversion:2.15.1
svn-partial-release-mgr:1.0.1
thinBackup:1.10
throttle-concurrents:2.5
timestamper:1.15
token-macro:267.vcdaea6462991
translation:1.16
trilead-api:1.0.13
uno-choice:2.6.1
variant:1.4
view-job-filters:2.1.1
warnings-ng:9.11.1
windows-slaves:1.8
workflow-aggregator:2.6
workflow-api:1143.v2d42f1e9dea_5
workflow-basic-steps:2.24
workflow-cps:2660.vb_c0412dc4e6d
workflow-cps-global-lib:548.v9085a486966a
workflow-durable-task-step:2.40
workflow-job:1145.v7f2433caa07f
workflow-multibranch:711.vdfef37cda_816
workflow-scm-step:2.13
workflow-step-api:622.vb_8e7c15b_c95a_
workflow-support:3.8
ws-cleanup:0.39
xunit:3.0.5